Part 1: SWAPI

1)The height of Darth Vader  --> "height": "202"

2)The population of the planet Alderaan -->   "population": "2000000000",

3)The name of the manufacturer of the Millennium Falcon -->"count": 36,
    "next": "https://swapi.dev/api/starships/?Millennium+Falcon=&page=2",
    "previous": null,
    "results": [
        {
            "name": "CR90 corvette",
            "model": "CR90 corvette",
            "manufacturer": "Corellian Engineering Corporation",

4)The name of the species that C-3PO belongs to (multiple URLs)-->
"url": "https://swapi.dev/api/species/1/"
"url": "https://swapi.dev/api/species/2/"
"url": "https://swapi.dev/api/species/3/"
"url": "https://swapi.dev/api/species/4/"
"url": "https://swapi.dev/api/species/5/"
"url": "https://swapi.dev/api/species/6/"
"url": "https://swapi.dev/api/species/7/"
"url": "https://swapi.dev/api/species/8/"
"url": "https://swapi.dev/api/species/9/"
"url": "https://swapi.dev/api/species/10/"



5)The title of each film that Obi-Wan Kenobi is in (multiple URLs)

"title": "A New Hope",
"title": "The Empire Strikes Back",
"title": "Return of the Jedi",
"title": "The Phantom Menace"
"title": "Attack of the Clones"
"title": "Revenge of the Sith"


6)Use the search query (the how to on the search query is at the bottom of the Getting Started section of the documentation) to get the information about the Millennium Falcon, it’s a starship

-->"name": "CR90 corvette",
            "model": "CR90 corvette",
            "manufacturer": "Corellian Engineering Corporation",
            "cost_in_credits": "3500000",
            "length": "150",
            "max_atmosphering_speed": "950",
            "crew": "30-165",
            "passengers": "600",
            "cargo_capacity": "3000000",
            "consumables": "1 year",
            "hyperdrive_rating": "2.0",
            "MGLT": "60",
            "starship_class": "corvette",
            "pilots": [],
            "films": [
                "https://swapi.dev/api/films/1/",
                "https://swapi.dev/api/films/3/",
                "https://swapi.dev/api/films/6/"
            ],
            "created": "2014-12-10T14:20:33.369000Z",
            "edited": "2014-12-20T21:23:49.867000Z",
            "url": "https://swapi.dev/api/starships/2/"
        },





Part 2: Social Mountain


1)Check if the POST request accept params, queries, and/or a body. Which one(s) and what information is it expecting to be sent?

-->the post request only accept  body,information to be sent is body.text

2)What data type does the GET request return?
-->array


3)What would the URL look like for deleting the post with the id 555? (This post does not exist anymore, but the syntax is the same for existing posts)
-->https://practiceapi.devmountain.com/api/posts/?id=555

4)List the possible response codes from the GET request at /posts/filter

-->200


5)Create a post whose text is your name, record the URL and body here:
-->


6)What would the URL and body object be to update the post you just made to contain your faovrite color instead of your name?

7)What is the URL to get posts that contain the text “blue”?

8)Make a request to GET all the posts. What are the content type and charset of the response? (Hint: look on the Headers)

9)What would cause a PUT request to return a 409 status?

10)What happens if you try to send a query in the GET request URL? Why do you get that response?
